%YAML 1.1
%TAG !u! tag:unity3d.com,2011:
--- !u!74 &7400000
AnimationClip:
  m_ObjectHideFlags: 0
  m_CorrespondingSourceObject: {fileID: 0}
  m_PrefabInternal: {fileID: 0}
  m_Name: Firefly_ChargeAttack
  serializedVersion: 6
  m_Legacy: 0
  m_Compressed: 0
  m_UseHighQualityCurve: 1
  m_RotationCurves: []
  m_CompressedRotationCurves: []
  m_EulerCurves: []
  m_PositionCurves: []
  m_ScaleCurves: []
  m_FloatCurves: []
  m_PPtrCurves:
  - curve:
    - time: 0
      value: {fileID: 21300000, guid: 180318f2b4b95404d9d2d546457a3857, type: 3}
    - time: 0.14285715
      value: {fileID: 21300000, guid: 24d463b8ada1f40b09c4d471de7ae32c, type: 3}
    - time: 0.2857143
      value: {fileID: 21300000, guid: cb6fa18e53ab146879ff488da4a7ed4f, type: 3}
    - time: 0.42857143
      value: {fileID: 21300000, guid: 933a2be84c15b4f0c9fa6dbcb25754c8, type: 3}
    - time: 0.5714286
      value: {fileID: 21300000, guid: f211b1e203d664c3a8fefa1f0f48a49c, type: 3}
    - time: 0.71428573
      value: {fileID: 21300000, guid: 92ae4f09e80f9480c8208589b84dee92, type: 3}
    attribute: m_Sprite
    path: 
    classID: 212
    script: {fileID: 0}
  m_SampleRate: 7
  m_WrapMode: 0
  m_Bounds:
    m_Center: {x: 0, y: 0, z: 0}
    m_Extent: {x: 0, y: 0, z: 0}
  m_ClipBindingConstant:
    genericBindings:
    - serializedVersion: 2
      path: 0
      attribute: 0
      script: {fileID: 0}
      typeID: 212
      customType: 23
      isPPtrCurve: 1
    pptrCurveMapping:
    - {fileID: 21300000, guid: 180318f2b4b95404d9d2d546457a3857, type: 3}
    - {fileID: 21300000, guid: 24d463b8ada1f40b09c4d471de7ae32c, type: 3}
    - {fileID: 21300000, guid: cb6fa18e53ab146879ff488da4a7ed4f, type: 3}
    - {fileID: 21300000, guid: 933a2be84c15b4f0c9fa6dbcb25754c8, type: 3}
    - {fileID: 21300000, guid: f211b1e203d664c3a8fefa1f0f48a49c, type: 3}
    - {fileID: 21300000, guid: 92ae4f09e80f9480c8208589b84dee92, type: 3}
  m_AnimationClipSettings:
    serializedVersion: 2
    m_AdditiveReferencePoseClip: {fileID: 0}
    m_AdditiveReferencePoseTime: 0
    m_StartTime: 0
    m_StopTime: 0.85714287
    m_OrientationOffsetY: 0
    m_Level: 0
    m_CycleOffset: 0
    m_HasAdditiveReferencePose: 0
    m_LoopTime: 0
    m_LoopBlend: 0
    m_LoopBlendOrientation: 0
    m_LoopBlendPositionY: 0
    m_LoopBlendPositionXZ: 0
    m_KeepOriginalOrientation: 0
    m_KeepOriginalPositionY: 1
    m_KeepOriginalPositionXZ: 0
    m_HeightFromFeet: 0
    m_Mirror: 0
  m_EditorCurves: []
  m_EulerEditorCurves: []
  m_HasGenericRootTransform: 0
  m_HasMotionFloatCurves: 0
  m_GenerateMotionCurves: 0
  m_Events: []
