%YAML 1.1
%TAG !u! tag:unity3d.com,2011:
--- !u!74 &7400000
AnimationClip:
  m_ObjectHideFlags: 0
  m_CorrespondingSourceObject: {fileID: 0}
  m_PrefabInstance: {fileID: 0}
  m_PrefabAsset: {fileID: 0}
  m_Name: Death 2
  serializedVersion: 6
  m_Legacy: 0
  m_Compressed: 0
  m_UseHighQualityCurve: 1
  m_RotationCurves: []
  m_CompressedRotationCurves: []
  m_EulerCurves: []
  m_PositionCurves: []
  m_ScaleCurves: []
  m_FloatCurves: []
  m_PPtrCurves:
  - curve:
    - time: 0
      value: {fileID: 4781276901189056871, guid: 4210f5affcd67944085785fcf0525761,
        type: 3}
    - time: 0.13333334
      value: {fileID: -6547996737626601788, guid: 4210f5affcd67944085785fcf0525761,
        type: 3}
    - time: 0.28333333
      value: {fileID: 5282181482062869910, guid: 4210f5affcd67944085785fcf0525761,
        type: 3}
    - time: 0.43333334
      value: {fileID: 5926507138496133088, guid: 4210f5affcd67944085785fcf0525761,
        type: 3}
    - time: 0.6
      value: {fileID: -5957979712862926940, guid: 4210f5affcd67944085785fcf0525761,
        type: 3}
    - time: 0.73333335
      value: {fileID: -2476763011427905887, guid: 4210f5affcd67944085785fcf0525761,
        type: 3}
    - time: 0.8666667
      value: {fileID: -5894713991111369515, guid: 4210f5affcd67944085785fcf0525761,
        type: 3}
    - time: 0.95
      value: {fileID: 8938201370727348230, guid: 4210f5affcd67944085785fcf0525761,
        type: 3}
    - time: 1
      value: {fileID: 8938201370727348230, guid: 4210f5affcd67944085785fcf0525761,
        type: 3}
    attribute: m_Sprite
    path: 
    classID: 212
    script: {fileID: 0}
  m_SampleRate: 60
  m_WrapMode: 0
  m_Bounds:
    m_Center: {x: 0, y: 0, z: 0}
    m_Extent: {x: 0, y: 0, z: 0}
  m_ClipBindingConstant:
    genericBindings:
    - serializedVersion: 2
      path: 0
      attribute: 0
      script: {fileID: 0}
      typeID: 212
      customType: 23
      isPPtrCurve: 1
    pptrCurveMapping:
    - {fileID: 4781276901189056871, guid: 4210f5affcd67944085785fcf0525761, type: 3}
    - {fileID: -6547996737626601788, guid: 4210f5affcd67944085785fcf0525761, type: 3}
    - {fileID: 5282181482062869910, guid: 4210f5affcd67944085785fcf0525761, type: 3}
    - {fileID: 5926507138496133088, guid: 4210f5affcd67944085785fcf0525761, type: 3}
    - {fileID: -5957979712862926940, guid: 4210f5affcd67944085785fcf0525761, type: 3}
    - {fileID: -2476763011427905887, guid: 4210f5affcd67944085785fcf0525761, type: 3}
    - {fileID: -5894713991111369515, guid: 4210f5affcd67944085785fcf0525761, type: 3}
    - {fileID: 8938201370727348230, guid: 4210f5affcd67944085785fcf0525761, type: 3}
    - {fileID: 8938201370727348230, guid: 4210f5affcd67944085785fcf0525761, type: 3}
  m_AnimationClipSettings:
    serializedVersion: 2
    m_AdditiveReferencePoseClip: {fileID: 0}
    m_AdditiveReferencePoseTime: 0
    m_StartTime: 0
    m_StopTime: 1.0166667
    m_OrientationOffsetY: 0
    m_Level: 0
    m_CycleOffset: 0
    m_HasAdditiveReferencePose: 0
    m_LoopTime: 1
    m_LoopBlend: 0
    m_LoopBlendOrientation: 0
    m_LoopBlendPositionY: 0
    m_LoopBlendPositionXZ: 0
    m_KeepOriginalOrientation: 0
    m_KeepOriginalPositionY: 1
    m_KeepOriginalPositionXZ: 0
    m_HeightFromFeet: 0
    m_Mirror: 0
  m_EditorCurves: []
  m_EulerEditorCurves: []
  m_HasGenericRootTransform: 0
  m_HasMotionFloatCurves: 0
  m_Events: []
