%YAML 1.1
%TAG !u! tag:unity3d.com,2011:
--- !u!74 &7400000
AnimationClip:
  m_ObjectHideFlags: 0
  m_CorrespondingSourceObject: {fileID: 0}
  m_PrefabInstance: {fileID: 0}
  m_PrefabAsset: {fileID: 0}
  m_Name: idle
  serializedVersion: 6
  m_Legacy: 0
  m_Compressed: 0
  m_UseHighQualityCurve: 1
  m_RotationCurves: []
  m_CompressedRotationCurves: []
  m_EulerCurves: []
  m_PositionCurves: []
  m_ScaleCurves: []
  m_FloatCurves: []
  m_PPtrCurves:
  - curve:
    - time: 0
      value: {fileID: -2911877904344117214, guid: 1ed34a0fd3bde4192856e52b3f02e288,
        type: 3}
    - time: 0.25
      value: {fileID: -2911877904344117214, guid: 1ed34a0fd3bde4192856e52b3f02e288,
        type: 3}
    - time: 0.45
      value: {fileID: -1632883652078401300, guid: 1ed34a0fd3bde4192856e52b3f02e288,
        type: 3}
    - time: 0.6333333
      value: {fileID: -1827043533089336384, guid: 1ed34a0fd3bde4192856e52b3f02e288,
        type: 3}
    - time: 0.78333336
      value: {fileID: -2546925953054577847, guid: 1ed34a0fd3bde4192856e52b3f02e288,
        type: 3}
    - time: 0.98333335
      value: {fileID: 6594474228146130708, guid: 1ed34a0fd3bde4192856e52b3f02e288,
        type: 3}
    - time: 1.1333333
      value: {fileID: 7478970636865769203, guid: 1ed34a0fd3bde4192856e52b3f02e288,
        type: 3}
    - time: 1.2833333
      value: {fileID: -4076891636385881518, guid: 1ed34a0fd3bde4192856e52b3f02e288,
        type: 3}
    - time: 2.3666666
      value: {fileID: -4076891636385881518, guid: 1ed34a0fd3bde4192856e52b3f02e288,
        type: 3}
    - time: 3.6
      value: {fileID: -3123746682901347338, guid: 1ed34a0fd3bde4192856e52b3f02e288,
        type: 3}
    - time: 3.6333334
      value: {fileID: -887668704405058801, guid: 1ed34a0fd3bde4192856e52b3f02e288,
        type: 3}
    - time: 3.6666667
      value: {fileID: 7491101104897779170, guid: 1ed34a0fd3bde4192856e52b3f02e288,
        type: 3}
    - time: 3.7
      value: {fileID: 8015064112280491321, guid: 1ed34a0fd3bde4192856e52b3f02e288,
        type: 3}
    - time: 3.7333333
      value: {fileID: -7837864677466653979, guid: 1ed34a0fd3bde4192856e52b3f02e288,
        type: 3}
    - time: 3.7666667
      value: {fileID: -2911877904344117214, guid: 1ed34a0fd3bde4192856e52b3f02e288,
        type: 3}
    - time: 5.9666667
      value: {fileID: -2911877904344117214, guid: 1ed34a0fd3bde4192856e52b3f02e288,
        type: 3}
    - time: 6.2166667
      value: {fileID: -2911877904344117214, guid: 1ed34a0fd3bde4192856e52b3f02e288,
        type: 3}
    - time: 6.4166665
      value: {fileID: -1632883652078401300, guid: 1ed34a0fd3bde4192856e52b3f02e288,
        type: 3}
    - time: 6.6
      value: {fileID: -1827043533089336384, guid: 1ed34a0fd3bde4192856e52b3f02e288,
        type: 3}
    - time: 6.75
      value: {fileID: -2546925953054577847, guid: 1ed34a0fd3bde4192856e52b3f02e288,
        type: 3}
    - time: 6.95
      value: {fileID: 6594474228146130708, guid: 1ed34a0fd3bde4192856e52b3f02e288,
        type: 3}
    - time: 7.1
      value: {fileID: 7478970636865769203, guid: 1ed34a0fd3bde4192856e52b3f02e288,
        type: 3}
    - time: 7.25
      value: {fileID: -4076891636385881518, guid: 1ed34a0fd3bde4192856e52b3f02e288,
        type: 3}
    - time: 8.333333
      value: {fileID: -4076891636385881518, guid: 1ed34a0fd3bde4192856e52b3f02e288,
        type: 3}
    attribute: m_Sprite
    path: 
    classID: 212
    script: {fileID: 0}
  m_SampleRate: 60
  m_WrapMode: 0
  m_Bounds:
    m_Center: {x: 0, y: 0, z: 0}
    m_Extent: {x: 0, y: 0, z: 0}
  m_ClipBindingConstant:
    genericBindings:
    - serializedVersion: 2
      path: 0
      attribute: 0
      script: {fileID: 0}
      typeID: 212
      customType: 23
      isPPtrCurve: 1
    pptrCurveMapping:
    - {fileID: -2911877904344117214, guid: 1ed34a0fd3bde4192856e52b3f02e288, type: 3}
    - {fileID: -2911877904344117214, guid: 1ed34a0fd3bde4192856e52b3f02e288, type: 3}
    - {fileID: -1632883652078401300, guid: 1ed34a0fd3bde4192856e52b3f02e288, type: 3}
    - {fileID: -1827043533089336384, guid: 1ed34a0fd3bde4192856e52b3f02e288, type: 3}
    - {fileID: -2546925953054577847, guid: 1ed34a0fd3bde4192856e52b3f02e288, type: 3}
    - {fileID: 6594474228146130708, guid: 1ed34a0fd3bde4192856e52b3f02e288, type: 3}
    - {fileID: 7478970636865769203, guid: 1ed34a0fd3bde4192856e52b3f02e288, type: 3}
    - {fileID: -4076891636385881518, guid: 1ed34a0fd3bde4192856e52b3f02e288, type: 3}
    - {fileID: -4076891636385881518, guid: 1ed34a0fd3bde4192856e52b3f02e288, type: 3}
    - {fileID: -3123746682901347338, guid: 1ed34a0fd3bde4192856e52b3f02e288, type: 3}
    - {fileID: -887668704405058801, guid: 1ed34a0fd3bde4192856e52b3f02e288, type: 3}
    - {fileID: 7491101104897779170, guid: 1ed34a0fd3bde4192856e52b3f02e288, type: 3}
    - {fileID: 8015064112280491321, guid: 1ed34a0fd3bde4192856e52b3f02e288, type: 3}
    - {fileID: -7837864677466653979, guid: 1ed34a0fd3bde4192856e52b3f02e288, type: 3}
    - {fileID: -2911877904344117214, guid: 1ed34a0fd3bde4192856e52b3f02e288, type: 3}
    - {fileID: -2911877904344117214, guid: 1ed34a0fd3bde4192856e52b3f02e288, type: 3}
    - {fileID: -2911877904344117214, guid: 1ed34a0fd3bde4192856e52b3f02e288, type: 3}
    - {fileID: -1632883652078401300, guid: 1ed34a0fd3bde4192856e52b3f02e288, type: 3}
    - {fileID: -1827043533089336384, guid: 1ed34a0fd3bde4192856e52b3f02e288, type: 3}
    - {fileID: -2546925953054577847, guid: 1ed34a0fd3bde4192856e52b3f02e288, type: 3}
    - {fileID: 6594474228146130708, guid: 1ed34a0fd3bde4192856e52b3f02e288, type: 3}
    - {fileID: 7478970636865769203, guid: 1ed34a0fd3bde4192856e52b3f02e288, type: 3}
    - {fileID: -4076891636385881518, guid: 1ed34a0fd3bde4192856e52b3f02e288, type: 3}
    - {fileID: -4076891636385881518, guid: 1ed34a0fd3bde4192856e52b3f02e288, type: 3}
  m_AnimationClipSettings:
    serializedVersion: 2
    m_AdditiveReferencePoseClip: {fileID: 0}
    m_AdditiveReferencePoseTime: 0
    m_StartTime: 0
    m_StopTime: 8.349999
    m_OrientationOffsetY: 0
    m_Level: 0
    m_CycleOffset: 0
    m_HasAdditiveReferencePose: 0
    m_LoopTime: 1
    m_LoopBlend: 0
    m_LoopBlendOrientation: 0
    m_LoopBlendPositionY: 0
    m_LoopBlendPositionXZ: 0
    m_KeepOriginalOrientation: 0
    m_KeepOriginalPositionY: 1
    m_KeepOriginalPositionXZ: 0
    m_HeightFromFeet: 0
    m_Mirror: 0
  m_EditorCurves: []
  m_EulerEditorCurves: []
  m_HasGenericRootTransform: 0
  m_HasMotionFloatCurves: 0
  m_Events: []
