%YAML 1.1
%TAG !u! tag:unity3d.com,2011:
--- !u!74 &7400000
AnimationClip:
  m_ObjectHideFlags: 0
  m_CorrespondingSourceObject: {fileID: 0}
  m_PrefabInstance: {fileID: 0}
  m_PrefabAsset: {fileID: 0}
  m_Name: spirit_idle
  serializedVersion: 6
  m_Legacy: 0
  m_Compressed: 0
  m_UseHighQualityCurve: 1
  m_RotationCurves: []
  m_CompressedRotationCurves: []
  m_EulerCurves: []
  m_PositionCurves: []
  m_ScaleCurves: []
  m_FloatCurves: []
  m_PPtrCurves:
  - curve:
    - time: 0
      value: {fileID: -7943978663990917606, guid: 3822d8eea92c244d89c2c346c5372356,
        type: 3}
    - time: 0.16666667
      value: {fileID: 2125198721308313791, guid: 3822d8eea92c244d89c2c346c5372356,
        type: 3}
    - time: 0.38333333
      value: {fileID: -6681848715113101571, guid: 3822d8eea92c244d89c2c346c5372356,
        type: 3}
    - time: 0.55
      value: {fileID: 1270385095353769139, guid: 3822d8eea92c244d89c2c346c5372356,
        type: 3}
    - time: 0.7
      value: {fileID: 4545880752152057627, guid: 3822d8eea92c244d89c2c346c5372356,
        type: 3}
    - time: 0.85
      value: {fileID: 6778139241583434983, guid: 3822d8eea92c244d89c2c346c5372356,
        type: 3}
    - time: 1.0166667
      value: {fileID: -2395192364661402929, guid: 3822d8eea92c244d89c2c346c5372356,
        type: 3}
    - time: 1.1666666
      value: {fileID: -3639585677662750729, guid: 3822d8eea92c244d89c2c346c5372356,
        type: 3}
    - time: 1.3166667
      value: {fileID: -2060448679034060773, guid: 3822d8eea92c244d89c2c346c5372356,
        type: 3}
    - time: 1.4666667
      value: {fileID: 988959829113747630, guid: 3822d8eea92c244d89c2c346c5372356,
        type: 3}
    - time: 1.65
      value: {fileID: -506979538775899449, guid: 3822d8eea92c244d89c2c346c5372356,
        type: 3}
    - time: 1.85
      value: {fileID: -4283053691221130758, guid: 3822d8eea92c244d89c2c346c5372356,
        type: 3}
    - time: 2.05
      value: {fileID: 8616771945388183566, guid: 3822d8eea92c244d89c2c346c5372356,
        type: 3}
    - time: 2.25
      value: {fileID: 9192534776565952664, guid: 3822d8eea92c244d89c2c346c5372356,
        type: 3}
    - time: 2.4833333
      value: {fileID: -4707261133794808902, guid: 3822d8eea92c244d89c2c346c5372356,
        type: 3}
    - time: 2.65
      value: {fileID: 3666641578075936639, guid: 3822d8eea92c244d89c2c346c5372356,
        type: 3}
    - time: 2.8333333
      value: {fileID: 1270385095353769139, guid: 3822d8eea92c244d89c2c346c5372356,
        type: 3}
    attribute: m_Sprite
    path: 
    classID: 212
    script: {fileID: 0}
  m_SampleRate: 60
  m_WrapMode: 0
  m_Bounds:
    m_Center: {x: 0, y: 0, z: 0}
    m_Extent: {x: 0, y: 0, z: 0}
  m_ClipBindingConstant:
    genericBindings:
    - serializedVersion: 2
      path: 0
      attribute: 0
      script: {fileID: 0}
      typeID: 212
      customType: 23
      isPPtrCurve: 1
    pptrCurveMapping:
    - {fileID: -7943978663990917606, guid: 3822d8eea92c244d89c2c346c5372356, type: 3}
    - {fileID: 2125198721308313791, guid: 3822d8eea92c244d89c2c346c5372356, type: 3}
    - {fileID: -6681848715113101571, guid: 3822d8eea92c244d89c2c346c5372356, type: 3}
    - {fileID: 1270385095353769139, guid: 3822d8eea92c244d89c2c346c5372356, type: 3}
    - {fileID: 4545880752152057627, guid: 3822d8eea92c244d89c2c346c5372356, type: 3}
    - {fileID: 6778139241583434983, guid: 3822d8eea92c244d89c2c346c5372356, type: 3}
    - {fileID: -2395192364661402929, guid: 3822d8eea92c244d89c2c346c5372356, type: 3}
    - {fileID: -3639585677662750729, guid: 3822d8eea92c244d89c2c346c5372356, type: 3}
    - {fileID: -2060448679034060773, guid: 3822d8eea92c244d89c2c346c5372356, type: 3}
    - {fileID: 988959829113747630, guid: 3822d8eea92c244d89c2c346c5372356, type: 3}
    - {fileID: -506979538775899449, guid: 3822d8eea92c244d89c2c346c5372356, type: 3}
    - {fileID: -4283053691221130758, guid: 3822d8eea92c244d89c2c346c5372356, type: 3}
    - {fileID: 8616771945388183566, guid: 3822d8eea92c244d89c2c346c5372356, type: 3}
    - {fileID: 9192534776565952664, guid: 3822d8eea92c244d89c2c346c5372356, type: 3}
    - {fileID: -4707261133794808902, guid: 3822d8eea92c244d89c2c346c5372356, type: 3}
    - {fileID: 3666641578075936639, guid: 3822d8eea92c244d89c2c346c5372356, type: 3}
    - {fileID: 1270385095353769139, guid: 3822d8eea92c244d89c2c346c5372356, type: 3}
  m_AnimationClipSettings:
    serializedVersion: 2
    m_AdditiveReferencePoseClip: {fileID: 0}
    m_AdditiveReferencePoseTime: 0
    m_StartTime: 0
    m_StopTime: 2.85
    m_OrientationOffsetY: 0
    m_Level: 0
    m_CycleOffset: 0
    m_HasAdditiveReferencePose: 0
    m_LoopTime: 1
    m_LoopBlend: 0
    m_LoopBlendOrientation: 0
    m_LoopBlendPositionY: 0
    m_LoopBlendPositionXZ: 0
    m_KeepOriginalOrientation: 0
    m_KeepOriginalPositionY: 1
    m_KeepOriginalPositionXZ: 0
    m_HeightFromFeet: 0
    m_Mirror: 0
  m_EditorCurves: []
  m_EulerEditorCurves: []
  m_HasGenericRootTransform: 0
  m_HasMotionFloatCurves: 0
  m_Events: []
