%YAML 1.1
%TAG !u! tag:unity3d.com,2011:
--- !u!74 &7400000
AnimationClip:
  m_ObjectHideFlags: 0
  m_CorrespondingSourceObject: {fileID: 0}
  m_PrefabInstance: {fileID: 0}
  m_PrefabAsset: {fileID: 0}
  m_Name: orange_collected
  serializedVersion: 6
  m_Legacy: 0
  m_Compressed: 0
  m_UseHighQualityCurve: 1
  m_RotationCurves: []
  m_CompressedRotationCurves: []
  m_EulerCurves: []
  m_PositionCurves: []
  m_ScaleCurves: []
  m_FloatCurves: []
  m_PPtrCurves:
  - curve:
    - time: 0
      value: {fileID: -6005628065524873594, guid: 27a509442e3d8b143b765711cef1e3ab,
        type: 3}
    - time: 0.06666667
      value: {fileID: -7842906072758515954, guid: 27a509442e3d8b143b765711cef1e3ab,
        type: 3}
    - time: 0.13333334
      value: {fileID: 5804325763595204869, guid: 27a509442e3d8b143b765711cef1e3ab,
        type: 3}
    - time: 0.2
      value: {fileID: 7941601947357424511, guid: 27a509442e3d8b143b765711cef1e3ab,
        type: 3}
    - time: 0.26666668
      value: {fileID: 6146622501869276147, guid: 27a509442e3d8b143b765711cef1e3ab,
        type: 3}
    - time: 0.33333334
      value: {fileID: -8817265159648972328, guid: 27a509442e3d8b143b765711cef1e3ab,
        type: 3}
    - time: 0.43333334
      value: {fileID: -1926404977342817550, guid: 27a509442e3d8b143b765711cef1e3ab,
        type: 3}
    - time: 0.5
      value: {fileID: -7193368602917253283, guid: 27a509442e3d8b143b765711cef1e3ab,
        type: 3}
    - time: 0.5833333
      value: {fileID: 2555120142876563002, guid: 27a509442e3d8b143b765711cef1e3ab,
        type: 3}
    - time: 0.68333334
      value: {fileID: 3538101771987917191, guid: 27a509442e3d8b143b765711cef1e3ab,
        type: 3}
    - time: 0.75
      value: {fileID: 39221752793526271, guid: 16148fccb17ca3e408ef71f87fc8dd86, type: 3}
    attribute: m_Sprite
    path: 
    classID: 212
    script: {fileID: 0}
  m_SampleRate: 60
  m_WrapMode: 0
  m_Bounds:
    m_Center: {x: 0, y: 0, z: 0}
    m_Extent: {x: 0, y: 0, z: 0}
  m_ClipBindingConstant:
    genericBindings:
    - serializedVersion: 2
      path: 0
      attribute: 0
      script: {fileID: 0}
      typeID: 212
      customType: 23
      isPPtrCurve: 1
    pptrCurveMapping:
    - {fileID: -6005628065524873594, guid: 27a509442e3d8b143b765711cef1e3ab, type: 3}
    - {fileID: -7842906072758515954, guid: 27a509442e3d8b143b765711cef1e3ab, type: 3}
    - {fileID: 5804325763595204869, guid: 27a509442e3d8b143b765711cef1e3ab, type: 3}
    - {fileID: 7941601947357424511, guid: 27a509442e3d8b143b765711cef1e3ab, type: 3}
    - {fileID: 6146622501869276147, guid: 27a509442e3d8b143b765711cef1e3ab, type: 3}
    - {fileID: -8817265159648972328, guid: 27a509442e3d8b143b765711cef1e3ab, type: 3}
    - {fileID: -1926404977342817550, guid: 27a509442e3d8b143b765711cef1e3ab, type: 3}
    - {fileID: -7193368602917253283, guid: 27a509442e3d8b143b765711cef1e3ab, type: 3}
    - {fileID: 2555120142876563002, guid: 27a509442e3d8b143b765711cef1e3ab, type: 3}
    - {fileID: 3538101771987917191, guid: 27a509442e3d8b143b765711cef1e3ab, type: 3}
    - {fileID: 39221752793526271, guid: 16148fccb17ca3e408ef71f87fc8dd86, type: 3}
  m_AnimationClipSettings:
    serializedVersion: 2
    m_AdditiveReferencePoseClip: {fileID: 0}
    m_AdditiveReferencePoseTime: 0
    m_StartTime: 0
    m_StopTime: 0.76666665
    m_OrientationOffsetY: 0
    m_Level: 0
    m_CycleOffset: 0
    m_HasAdditiveReferencePose: 0
    m_LoopTime: 0
    m_LoopBlend: 0
    m_LoopBlendOrientation: 0
    m_LoopBlendPositionY: 0
    m_LoopBlendPositionXZ: 0
    m_KeepOriginalOrientation: 0
    m_KeepOriginalPositionY: 1
    m_KeepOriginalPositionXZ: 0
    m_HeightFromFeet: 0
    m_Mirror: 0
  m_EditorCurves: []
  m_EulerEditorCurves: []
  m_HasGenericRootTransform: 0
  m_HasMotionFloatCurves: 0
  m_Events: []
