%YAML 1.1
%TAG !u! tag:unity3d.com,2011:
--- !u!1045 &1
EditorBuildSettings:
  m_ObjectHideFlags: 0
  serializedVersion: 2
  m_Scenes:
  - enabled: 1
    path: Assets/Scenes/StartScene.unity
    guid: 4840869ba7dea488f88fdaeaa92396ca
  - enabled: 1
    path: Assets/Scenes/MainScene.unity
    guid: 164761688eb8f4a03a0ee613c223fb09
  - enabled: 1
    path: Assets/Scenes/QuestScene.unity
    guid: a8aa085df600847f0b0650c419fa2322
  - enabled: 1
    path: Assets/Scenes/ShopScene.unity
    guid: a029a8dbd2e99411e85c0dbc92f20ad6
  - enabled: 1
    path: Assets/Scenes/StatsScene.unity
    guid: ee933ad7ae913431aa5f240edf570d03
  - enabled: 1
    path: Assets/Scenes/SettingsScene.unity
    guid: 61cf3daaecab3498e97e0e2d1fc15175
  m_configObjects: {}
