%YAML 1.1
%TAG !u! tag:unity3d.com,2011:
--- !u!74 &7400000
AnimationClip:
  m_ObjectHideFlags: 0
  m_CorrespondingSourceObject: {fileID: 0}
  m_PrefabInstance: {fileID: 0}
  m_PrefabAsset: {fileID: 0}
  m_Name: Guy_Idle
  serializedVersion: 6
  m_Legacy: 0
  m_Compressed: 0
  m_UseHighQualityCurve: 1
  m_RotationCurves: []
  m_CompressedRotationCurves: []
  m_EulerCurves: []
  m_PositionCurves: []
  m_ScaleCurves: []
  m_FloatCurves: []
  m_PPtrCurves:
  - curve:
    - time: 0
      value: {fileID: 2316055490182556712, guid: eff659fed723f3143be3b04b56517a28,
        type: 3}
    - time: 0.033333335
      value: {fileID: 2316055490182556712, guid: eff659fed723f3143be3b04b56517a28,
        type: 3}
    - time: 0.15
      value: {fileID: 6292267360685912324, guid: eff659fed723f3143be3b04b56517a28,
        type: 3}
    - time: 0.18333334
      value: {fileID: -375509076992878078, guid: eff659fed723f3143be3b04b56517a28,
        type: 3}
    - time: 0.23333333
      value: {fileID: -375509076992878078, guid: eff659fed723f3143be3b04b56517a28,
        type: 3}
    - time: 0.25
      value: {fileID: -1022731652306890817, guid: eff659fed723f3143be3b04b56517a28,
        type: 3}
    - time: 0.3
      value: {fileID: -2344259264167993132, guid: eff659fed723f3143be3b04b56517a28,
        type: 3}
    - time: 0.33333334
      value: {fileID: -827960974153215231, guid: 6d13e0964d0534acaa2ed8fa0a6d6645,
        type: 3}
    - time: 0.53333336
      value: {fileID: -5930960578220187168, guid: 6d13e0964d0534acaa2ed8fa0a6d6645,
        type: 3}
    - time: 0.76666665
      value: {fileID: -3825766029038131060, guid: 6d13e0964d0534acaa2ed8fa0a6d6645,
        type: 3}
    - time: 1
      value: {fileID: -5930960578220187168, guid: 6d13e0964d0534acaa2ed8fa0a6d6645,
        type: 3}
    attribute: m_Sprite
    path: 
    classID: 212
    script: {fileID: 0}
  m_SampleRate: 60
  m_WrapMode: 0
  m_Bounds:
    m_Center: {x: 0, y: 0, z: 0}
    m_Extent: {x: 0, y: 0, z: 0}
  m_ClipBindingConstant:
    genericBindings:
    - serializedVersion: 2
      path: 0
      attribute: 0
      script: {fileID: 0}
      typeID: 212
      customType: 23
      isPPtrCurve: 1
    pptrCurveMapping:
    - {fileID: 2316055490182556712, guid: eff659fed723f3143be3b04b56517a28, type: 3}
    - {fileID: 2316055490182556712, guid: eff659fed723f3143be3b04b56517a28, type: 3}
    - {fileID: 6292267360685912324, guid: eff659fed723f3143be3b04b56517a28, type: 3}
    - {fileID: -375509076992878078, guid: eff659fed723f3143be3b04b56517a28, type: 3}
    - {fileID: -375509076992878078, guid: eff659fed723f3143be3b04b56517a28, type: 3}
    - {fileID: -1022731652306890817, guid: eff659fed723f3143be3b04b56517a28, type: 3}
    - {fileID: -2344259264167993132, guid: eff659fed723f3143be3b04b56517a28, type: 3}
    - {fileID: -827960974153215231, guid: 6d13e0964d0534acaa2ed8fa0a6d6645, type: 3}
    - {fileID: -5930960578220187168, guid: 6d13e0964d0534acaa2ed8fa0a6d6645, type: 3}
    - {fileID: -3825766029038131060, guid: 6d13e0964d0534acaa2ed8fa0a6d6645, type: 3}
    - {fileID: -5930960578220187168, guid: 6d13e0964d0534acaa2ed8fa0a6d6645, type: 3}
  m_AnimationClipSettings:
    serializedVersion: 2
    m_AdditiveReferencePoseClip: {fileID: 0}
    m_AdditiveReferencePoseTime: 0
    m_StartTime: 0
    m_StopTime: 1.0166667
    m_OrientationOffsetY: 0
    m_Level: 0
    m_CycleOffset: 0
    m_HasAdditiveReferencePose: 0
    m_LoopTime: 1
    m_LoopBlend: 1
    m_LoopBlendOrientation: 0
    m_LoopBlendPositionY: 0
    m_LoopBlendPositionXZ: 0
    m_KeepOriginalOrientation: 0
    m_KeepOriginalPositionY: 1
    m_KeepOriginalPositionXZ: 0
    m_HeightFromFeet: 0
    m_Mirror: 0
  m_EditorCurves: []
  m_EulerEditorCurves: []
  m_HasGenericRootTransform: 0
  m_HasMotionFloatCurves: 0
  m_Events: []
